120200910                                                                                                                                   
38503642DNI PES000000008821
20998170DNI PES000000074547
17534845DNI PES000000597964
681332